VHD/simulation/qsim/t0302.msim.vcd
$comment
	File created using the following command:
		vcd file t0302.msim.vcd -direction
$end
$date
	Thu Mar 23 09:31:06 2023
$end
$version
	ModelSim Version 10.3c
$end
$timescale
	1ps
$end

$scope module HW10_vlg_vec_tst $end
$var reg 1 ! clk $end
$var wire 1 " Q0 $end
$var wire 1 # Q1 $end
$var wire 1 $ Q2 $end
$var wire 1 % Q3 $end
$var wire 1 & sampler $end

$scope module i1 $end
$var wire 1 ' gnd $end
$var wire 1 ( vcc $end
$var wire 1 ) unknown $end
$var tri1 1 * devclrn $end
$var tri1 1 + devpor $end
$var tri1 1 , devoe $end
$var wire 1 - Q0~output_o $end
$var wire 1 . Q1~output_o $end
$var wire 1 / Q2~output_o $end
$var wire 1 0 Q3~output_o $end
$var wire 1 1 clk~input_o $end
$var wire 1 2 clk~inputclkctrl_outclk $end
$var wire 1 3 inst~feeder_combout $end
$var wire 1 4 inst~q $end
$var wire 1 5 inst1~feeder_combout $end
$var wire 1 6 inst1~q $end
$var wire 1 7 inst2~feeder_combout $end
$var wire 1 8 inst2~q $end
$var wire 1 9 inst3~0_combout $end
$var wire 1 : inst3~q $end
$upscope $end
$upscope $end
$enddefinitions $end
#0
$dumpvars
0!
0"
0#
0$
0%
x&
0'
1(
x)
1*
1+
1,
0-
0.
0/
00
01
02
03
04
05
06
07
08
19
0:
$end
#10000
1!
11
0&
12
1:
1-
1"
13
#20000
0!
01
1&
02
#30000
1!
11
0&
12
14
1.
1#
15
#40000
0!
01
1&
02
#50000
1!
11
0&
12
16
1/
1$
09
17
#60000
0!
01
1&
02
#70000
1!
11
0&
12
0:
18
10
0-
1%
0"
03
#80000
0!
01
1&
02
#90000
1!
11
0&
12
04
0.
0#
05
#100000
0!
01
1&
02
#110000
1!
11
0&
12
06
0/
0$
07
#120000
0!
01
1&
02
#130000
1!
11
0&
12
08
00
0%
19
#140000
0!
01
1&
02
#150000
1!
11
0&
12
1:
1-
1"
13
#160000
0!
01
1&
02
#170000
1!
11
0&
12
14
1.
1#
15
#180000
0!
01
1&
02
#190000
1!
11
0&
12
16
1/
1$
09
17
#200000
0!
01
1&
02
#210000
1!
11
0&
12
0:
18
10
0-
1%
0"
03
#220000
0!
01
1&
02
#230000
1!
11
0&
12
04
0.
0#
05
#240000
0!
01
1&
02
#250000
1!
11
0&
12
06
0/
0$
07
#260000
0!
01
1&
02
#270000
1!
11
0&
12
08
00
0%
19
#280000
0!
01
1&
02
#290000
1!
11
0&
12
1:
1-
1"
13
#300000
0!
01
1&
02
#310000
1!
11
0&
12
14
1.
1#
15
#320000
0!
01
1&
02
#330000
1!
11
0&
12
16
1/
1$
09
17
#340000
0!
01
1&
02
#350000
1!
11
0&
12
0:
18
10
0-
1%
0"
03
#360000
0!
01
1&
02
#370000
1!
11
0&
12
04
0.
0#
05
#380000
0!
01
1&
02
#390000
1!
11
0&
12
06
0/
0$
07
#400000
0!
01
1&
02
#410000
1!
11
0&
12
08
00
0%
19
#420000
0!
01
1&
02
#430000
1!
11
0&
12
1:
1-
1"
13
#440000
0!
01
1&
02
#450000
1!
11
0&
12
14
1.
1#
15
#460000
0!
01
1&
02
#470000
1!
11
0&
12
16
1/
1$
09
17
#480000
0!
01
1&
02
#490000
1!
11
0&
12
0:
18
10
0-
1%
0"
03
#500000
0!
01
1&
02
#510000
1!
11
0&
12
04
0.
0#
05
#520000
0!
01
1&
02
#530000
1!
11
0&
12
06
0/
0$
07
#540000
0!
01
1&
02
#550000
1!
11
0&
12
08
00
0%
19
#560000
0!
01
1&
02
#570000
1!
11
0&
12
1:
1-
1"
13
#580000
0!
01
1&
02
#590000
1!
11
0&
12
14
1.
1#
15
#600000
0!
01
1&
02
#610000
1!
11
0&
12
16
1/
1$
09
17
#620000
0!
01
1&
02
#630000
1!
11
0&
12
0:
18
10
0-
1%
0"
03
#640000
0!
01
1&
02
#650000
1!
11
0&
12
04
0.
0#
05
#660000
0!
01
1&
02
#670000
1!
11
0&
12
06
0/
0$
07
#680000
0!
01
1&
02
#690000
1!
11
0&
12
08
00
0%
19
#700000
0!
01
1&
02
#710000
1!
11
0&
12
1:
1-
1"
13
#720000
0!
01
1&
02
#730000
1!
11
0&
12
14
1.
1#
15
#740000
0!
01
1&
02
#750000
1!
11
0&
12
16
1/
1$
09
17
#760000
0!
01
1&
02
#770000
1!
11
0&
12
0:
18
10
0-
1%
0"
03
#780000
0!
01
1&
02
#790000
1!
11
0&
12
04
0.
0#
05
#800000
0!
01
1&
02
#810000
1!
11
0&
12
06
0/
0$
07
#820000
0!
01
1&
02
#830000
1!
11
0&
12
08
00
0%
19
#840000
0!
01
1&
02
#850000
1!
11
0&
12
1:
1-
1"
13
#860000
0!
01
1&
02
#870000
1!
11
0&
12
14
1.
1#
15
#880000
0!
01
1&
02
#890000
1!
11
0&
12
16
1/
1$
09
17
#900000
0!
01
1&
02
#910000
1!
11
0&
12
0:
18
10
0-
1%
0"
03
#920000
0!
01
1&
02
#930000
1!
11
0&
12
04
0.
0#
05
#940000
0!
01
1&
02
#950000
1!
11
0&
12
06
0/
0$
07
#960000
0!
01
1&
02
#970000
1!
11
0&
12
08
00
0%
19
#980000
0!
01
1&
02
#990000
1!
11
0&
12
1:
1-
1"
13
#1000000
0!
01
1&
02
#1010000
1!
11
0&
12
14
1.
1#
15
#1020000
0!
01
1&
02
#1030000
1!
11
0&
12
16
1/
1$
09
17
#1040000
0!
01
1&
02
#1050000
1!
11
0&
12
0:
18
10
0-
1%
0"
03
#1060000
0!
01
1&
02
#1070000
1!
11
0&
12
04
0.
0#
05
#1080000
0!
01
1&
02
#1090000
1!
11
0&
12
06
0/
0$
07
#1100000
0!
01
1&
02
#1110000
1!
11
0&
12
08
00
0%
19
#1120000
0!
01
1&
02
#1130000
1!
11
0&
12
1:
1-
1"
13
#1140000
0!
01
1&
02
#1150000
1!
11
0&
12
14
1.
1#
15
#1160000
0!
01
1&
02
#1170000
1!
11
0&
12
16
1/
1$
09
17
#1180000
0!
01
1&
02
#1190000
1!
11
0&
12
0:
18
10
0-
1%
0"
03
#1200000
0!
01
1&
02
#1210000
1!
11
0&
12
04
0.
0#
05
#1220000
0!
01
1&
02
#1230000
1!
11
0&
12
06
0/
0$
07
#1240000
0!
01
1&
02
#1250000
1!
11
0&
12
08
00
0%
19
#1260000
0!
01
1&
02
#1270000
1!
11
0&
12
1:
1-
1"
13
#1280000
0!
01
1&
02
#1290000
1!
11
0&
12
14
1.
1#
15
#1300000
0!
01
1&
02
#1310000
1!
11
0&
12
16
1/
1$
09
17
#1320000
0!
01
1&
02
#1330000
1!
11
0&
12
0:
18
10
0-
1%
0"
03
#1340000
0!
01
1&
02
#1350000
1!
11
0&
12
04
0.
0#
05
#1360000
0!
01
1&
02
#1370000
1!
11
0&
12
06
0/
0$
07
#1380000
0!
01
1&
02
#1390000
1!
11
0&
12
08
00
0%
19
#1400000
0!
01
1&
02
#1410000
1!
11
0&
12
1:
1-
1"
13
#1420000
0!
01
1&
02
#1430000
1!
11
0&
12
14
1.
1#
15
#1440000
0!
01
1&
02
#1450000
1!
11
0&
12
16
1/
1$
09
17
#1460000
0!
01
1&
02
#1470000
1!
11
0&
12
0:
18
10
0-
1%
0"
03
#1480000
0!
01
1&
02
#1490000
1!
11
0&
12
04
0.
0#
05
#1500000
0!
01
1&
02
#1510000
1!
11
0&
12
06
0/
0$
07
#1520000
0!
01
1&
02
#1530000
1!
11
0&
12
08
00
0%
19
#1540000
0!
01
1&
02
#1550000
1!
11
0&
12
1:
1-
1"
13
#1560000
0!
01
1&
02
#1570000
1!
11
0&
12
14
1.
1#
15
#1580000
0!
01
1&
02
#1590000
1!
11
0&
12
16
1/
1$
09
17
#1600000
0!
01
1&
02
#1610000
1!
11
0&
12
0:
18
10
0-
1%
0"
03
#1620000
0!
01
1&
02
#1630000
1!
11
0&
12
04
0.
0#
05
#1640000
0!
01
1&
02
#1650000
1!
11
0&
12
06
0/
0$
07
#1660000
0!
01
1&
02
#1670000
1!
11
0&
12
08
00
0%
19
#1680000
0!
01
1&
02
#1690000
1!
11
0&
12
1:
1-
1"
13
#1700000
0!
01
1&
02
#1710000
1!
11
0&
12
14
1.
1#
15
#1720000
0!
01
1&
02
#1730000
1!
11
0&
12
16
1/
1$
09
17
#1740000
0!
01
1&
02
#1750000
1!
11
0&
12
0:
18
10
0-
1%
0"
03
#1760000
0!
01
1&
02
#1770000
1!
11
0&
12
04
0.
0#
05
#1780000
0!
01
1&
02
#1790000
1!
11
0&
12
06
0/
0$
07
#1800000
0!
01
1&
02
#1810000
1!
11
0&
12
08
00
0%
19
#1820000
0!
01
1&
02
#1830000
1!
11
0&
12
1:
1-
1"
13
#1840000
0!
01
1&
02
#1850000
1!
11
0&
12
14
1.
1#
15
#1860000
0!
01
1&
02
#1870000
1!
11
0&
12
16
1/
1$
09
17
#1880000
0!
01
1&
02
#1890000
1!
11
0&
12
0:
18
10
0-
1%
0"
03
#1900000
0!
01
1&
02
#1910000
1!
11
0&
12
04
0.
0#
05
#1920000
0!
01
1&
02
#1930000
1!
11
0&
12
06
0/
0$
07
#1940000
0!
01
1&
02
#1950000
1!
11
0&
12
08
00
0%
19
#1960000
0!
01
1&
02
#1970000
1!
11
0&
12
1:
1-
1"
13
#1980000
0!
01
1&
02
#1990000
1!
11
0&
12
14
1.
1#
15
